Sensitivity analysis · T₁ variability
…
            df[df_idx, :dT1odm0s] = j[1]
            df[df_idx, :dT1odT1f] = j[2]
            df[df_idx, :dT1odT2f] = j[3]
            df[df_idx, :dT1odTex] = j[4]
            df[df_idx, :dT1odT1s] = j[5]
            df[df_idx, :dT1odT2s] = j[6]
        end
    end
    CSV.write("$(get_main_path())/jacobian.csv", df)
else
    df = DataFrame(CSV.File("$(get_main_path())/jacobian.csv"))
end
show(df; allrows=false, allcols=true)

225×15 DataFrame
 Row │ seq_name                           seq_type  ROI          m0s      T1f      T2f      Tex        T1s      T2s      dT1odm0s  dT1odT1f  dT1odT2f      dT1odTex  dT1odT1s  dT1odT2s
     │ String                             String7   String15     Float64  Float64  Float64  Float64    Float64  Float64  Float64   Float64   Float64       Float64   Float64   Float64
─────┼──────────────────────────────────────────────────────────────────────────────────────────────────────────────────────────────────────────────────────────────────────────────────────
   1 │ IR Stanisz et al.                  IR        WM             0.212     1.84   0.0769  0.0735294    0.34      12.5  -2.10292  0.267415  -0.000110262  1.30037   1.37382    0.000508036
   2 │ IR Stikhov et al.                  IR        WM             0.212     1.84   0.0769  0.0735294    0.34      12.5  -2.28826  0.222543  -0.0506166    0.912075  1.02529   -0.000920414
   3 │ IR Preibisch et al.                IR        WM             0.212     1.84   0.0769  0.0735294    0.34      12.5  -2.46361  0.228864   0.20441      1.52069   1.06454    0.00100851
   4 │ IR Shin et al.                     IR        WM             0.212     1.84   0.0769  0.0735294    0.34      12.5  -2.3551   0.246296  -0.022935     0.743902  1.27175   -1.53697e-5
   5 │ LL Shin et al.                     LL        WM             0.212     1.84   0.0769  0.0735294    0.34      12.5  -2.23983  0.251802  -0.00230623   0.658765  1.39083   -7.00089e-5
   6 │ IR Lu et al.                       IR        WM             0.212     1.84   0.0769  0.0735294    0.34      12.5  -2.22802  0.252726  -0.00395377   0.66974   1.40637   -5.633e-7
   7 │ LL Stikhov et al.                  LL        WM             0.212     1.84   0.0769  0.0735294    0.34      12.5  -2.24     0.18384    0.207381     1.85413   0.707039   0.00407056
   8 │ vFA Stikhov et al.                 vFA       WM             0.212     1.84   0.0769  0.0735294    0.34      12.5  -2.30226  0.298184   0.0182888    2.22977   1.23039    0.0082391
  ⋮  │                 ⋮                     ⋮           ⋮          ⋮        ⋮        ⋮         ⋮         ⋮        ⋮        ⋮         ⋮           ⋮           ⋮         ⋮           ⋮
 219 │ vFA CSMT w/ B1rms = 2uT Teixeira…  vFA       hippocampus    0.097     2.65   0.091   0.0653595    0.376     13.0  -7.14758  0.199928   0.119478     3.20735   0.484602   0.0100345
 220 │ MP2RAGE Marques et al.             MP2RAGE   hippocampus    0.097     2.65   0.091   0.0653595    0.376     13.0  -6.38943  0.349287   1.0598       1.6882    1.25555   -6.6475e-5
 221 │ MPRAGE Wright et al.               MP2RAGE   hippocampus    0.097     2.65   0.091   0.0653595    0.376     13.0  -6.28059  0.394443  -0.00842034   0.53405   1.53763   -9.50526e-5
 222 │ IR EPI Wright et al.               IR        hippocampus    0.097     2.65   0.091   0.0653595    0.376     13.0  -6.28075  0.395435  -0.00386423   0.670863  1.55602    0.000378673
 223 │ IR ad. Reynolds et al.             IR        hippocampus    0.097     2.65   0.091   0.0653595    0.376     13.0  -6.48347  0.376248  -0.0332049    1.16102   1.3979     0.000621703
 224 │ IR sinc Reynolds et al.            IR        hippocampus    0.097     2.65   0.091   0.0653595    0.376     13.0  -6.60535  0.361462  -0.00268402   1.05062   1.3209     0.00289585
 225 │ SR Reynolds et al.                 SR        hippocampus    0.097     2.65   0.091   0.0653595    0.376     13.0  -6.24995  0.4047     0.232175     1.09583   1.62443    0.00010026
                                                                                                                                                                            210 rows omitted
…
